%YAML 1.1
%TAG !u! tag:unity3d.com,2011:
--- !u!114 &11400000
MonoBehaviour:
  m_ObjectHideFlags: 0
  m_CorrespondingSourceObject: {fileID: 0}
  m_PrefabInstance: {fileID: 0}
  m_PrefabAsset: {fileID: 0}
  m_GameObject: {fileID: 0}
  m_Enabled: 1
  m_EditorHideFlags: 0
  m_Script: {fileID: 11500000, guid: 07e818b846c1c76459f3605c5817e029, type: 3}
  m_Name: PowerBonusSpell
  m_EditorClassIdentifier: 
  cardType: 0
  id: 10
  name: Puissance
  description: Augmente de +10 la puissance pendant 2 combats
  actionCost: 1
  template: {fileID: 0}
  artwork: {fileID: 21300000, guid: 263b854d534be7646a931d47c5c7cbf2, type: 3}
  effectsData: []
