%YAML 1.1
%TAG !u! tag:unity3d.com,2011:
--- !u!114 &11400000
MonoBehaviour:
  m_ObjectHideFlags: 0
  m_CorrespondingSourceObject: {fileID: 0}
  m_PrefabInstance: {fileID: 0}
  m_PrefabAsset: {fileID: 0}
  m_GameObject: {fileID: 0}
  m_Enabled: 1
  m_EditorHideFlags: 0
  m_Script: {fileID: 11500000, guid: 88563952eb0d6ad47ba4270090c7de02, type: 3}
  m_Name: Defense_Abnegation [a_tester]
  m_EditorClassIdentifier: 
  cardType: 2
  id: 8
  name: Abnegation
  description: Discard all your cards, gain [nbBlock] block by card discarded.
  actionCost: 2
  price: 72
  template: {fileID: 21300000, guid: f44370d35cac10f4f805debd227b407b, type: 3}
  artwork: {fileID: 21300000, guid: 9a239aa739ace534f871bae45295920b, type: 3}
  effectsData:
  - currentEffect: 2
    damagePoint: 0
    nbMoves: 0
    rolling: 0
    swift: 0
    noBrakes: 0
    nbBlock: 5
    isCounter: 0
    counterDamagePoint: 0
    KillerInstinct: 0
    FastShoes: 0
    Sight: 0
    sightRange: 1
    DrawCard: 0
    nbCardToDraw: 0
    isHeal: 0
    nbHeal: 0
    shiver: 0
    trust: 0
    trustNb: 0
    isDiscardHand: 1
    isUseless: 1
